{
  "project_info": {
    "project_number": "557439179986",
    "firebase_url": "https://htapp-94cdb.firebaseio.com",
    "project_id": "htapp-94cdb",
    "storage_bucket": "htapp-94cdb.appspot.com"
  },
  "client": [
    {
      "client_info": {
        "mobilesdk_app_id": "1:557439179986:android:541077c21e5f8f65",
        "android_client_info": {
          "package_name": "com.htlogistics.app"
        }
      },
      "oauth_client": [
        {
          "client_id": "557439179986-162fkan8j4r130fpmsecsrleh3u3kqfl.apps.googleusercontent.com",
          "client_type": 3
        }
      ],
      "api_key": [
        {
          "current_key": "AIzaSyCW6EfX8z7Mib16FQ2IMlUPs2eZ9y9kOfw"
        }
      ],
      "services": {
        "appinvite_service": {
          "other_platform_oauth_client": [
            {
              "client_id": "557439179986-162fkan8j4r130fpmsecsrleh3u3kqfl.apps.googleusercontent.com",
              "client_type": 3
            }
          ]
        }
      }
    }
  ],
  "configuration_version": "1"
}